@startuml

title __ENTITY's Class Diagram__\n


    namespace om.visual.visualRecognition {
      namespace Entity {
        class com.visual.visualRecognition.Entity.Authenticator {
            - APIKey : String
            + VerifyP()
            + VerifyPerson()
        }
      }
    }

  

    namespace om.visual.visualRecognition {
      namespace Entity {
        class com.visual.visualRecognition.Entity.Clasifier {
            - classifier_id : String
            - name : String
            - persons : List<Person>
            + Clasifier()
            + Clasifier()
            + getClassifier_id()
            + getName()
            + getPersons()
            + setClassifier_id()
            + setName()
            + setPersons()
        }
      }
    }
  

    namespace om.visual.visualRecognition {
      namespace Entity {
        class com.visual.visualRecognition.Entity.Image {
            - clasifiers : List<Clasifier>
            - image : String
            - resolved_url : String
            - source_url : String
            + Image()
            + Image()
            + getClasifiers()
            + getImage()
            + getResolved_url()
            + getSource_url()
            + setClasifiers()
            + setImage()
            + setResolved_url()
            + setSource_url()
        }
      }
    }

  


    namespace om.visual.visualRecognition {
      namespace Entity {
        class com.visual.visualRecognition.Entity.Person {
            - score : Float
            - type : String
            - type_hierarchy : String
            + getScore()
            + getType()
            + getType_hierarchy()
            + setScore()
            + setType()
            + setType_hierarchy()
            + toString()
            ~ Person()
            ~ Person()
        }
      }
    }

  


    namespace om.visual.visualRecognition {
      namespace Entity {
        class com.visual.visualRecognition.Entity.Response {
            - custom_classes : Long
            - images : List<Image>
            - images_processed : Long
            + Response()
            + Response()
            + getCustom_classes()
            + getImages()
            + getImages_processed()
            + setCustom_classes()
            + setImages()
            + setImages_processed()
        }
      }
    }

  

  com.visual.visualRecognition.Entity.Authenticator o-- com.visual.visualRecognition.Entity.Response : response


right footer


PlantUML diagram generated by SketchIt! (https://bitbucket.org/pmesmeur/sketch.it)
For more information about this tool, please contact philippe.mesmeur@gmail.com
endfooter

@enduml
